{
	"name":{
		"gchar":"a"
	},
	"width":{
		"gfloat":59.0
	},
	"height":{
		"gfloat":58.0
	},
	"normal-image":{
		"gchararray":"bt_bg_key_standard_IN.png"
	},
	"pressed-image":{
		"gchararray":"bt_bg_key_standard_AC.png"
	},
	"type":{
		"gchar":"text"
	},
	"x":{
		"gfloat":40.0
	},
	"y":{
		"gfloat":58.0
	},
	"default-text":{
		"gchar":"a"
	},
	"shift-text":{
		"gchar":"A"
	},
	"symbol-text":{
		"gchar":"!"
	},
    "long-press-enabled":{
        "gboolean":true
    }
}
