{
	"name":{
		"gchar":"go"
	},
	"width":{
		"gfloat":64.0
	},
	"height":{
		"gfloat":65.0
	},
	"normal-image":{
		"gchararray":"bt_bg_single_normal.png"
	},
	"pressed-image":{
		"gchararray":"bt_bg_single_pressed.png"
	},
	"type":{
		"gchar":"text"
	},
	"x":{
		"gfloat":653.0
	},
	"y":{
		"gfloat":173.0
	},
	"default-text":{
		"gchar":"GO!"
	},
    "shift-text":{
		"gchar":"GO!"
	},
	"symbol-text":{
		"gchar":"GO!"
	},
    "long-press-enabled":{
        "gboolean":true
    }
}
