{
	"1":{
		"width":{
			"gfloat": 800.0
		}
	},
	"2":{
		"height":{
        	        "gfloat":480.0
		}
        },
	"3":{
		"roller-type":{
			"gint": 0
		}
	},
	"4":{
		"roll-over":{
        	        "gboolean":true
		}
	},
	"5":{
		"reactive":{
			"gboolean":true
		}
        },
	"6":{
		"show-flow-layout":{
			"gboolean":true
		}
	},
	"7":{
		"cylinder-distort":{
        	        "gboolean":true
		}
        },
	"8":{
		"motion-blur":{
        	        "gboolean":false
		}
	},
	"9":{
		"show-arrow":{
			"gboolean":true
		}
	},
	"10":{
		"arrow-position":{
			"gfloat":365.0
		}
	}
}	
