{
        "empty-rating-star":{    
                "gchararray":"mh_rb_empty_star_IN.png"
        },
        "half-rating-star":{    
                "gchararray":"mh_rb_half_star_IN.png"
        },
        "full-rating-star":{    
                "gchararray":"mh_rb_full_star_IN.png"
        },
        "rating-star-x":{    
                "gfloat":10.0
        },
        "rating-star-y":{    
       			 "gfloat":9.0
        },
        "rating-text-y":{    
                "gfloat":24.0
        },
        "rating-text-x":{    
                "gfloat":10.0
        },
        "rating-text-font":{
        		 "gchararray":"DejaVuSansCondensed 18px"
        },
        "rating-text-color":{
        		"gchararray":"#98A9B3FF"
        },
        "left-bottom-text-x":{
        		"gfloat":10.0
        },		 
        "left-bottom-text-y":{
        		"gfloat":30.0
        },
        "left-bottom-text-max-width":{
        		"gfloat":110.0
        },
        "right-text-y":{
        		"gfloat":15.0
        },
        "right-text-displacement":{
        		"gfloat":10.0
        },  
        "rating-star-space":{
        		"gfloat":22.0
        },
        "right-text-default-font":{
        		"gchararray":"DejaVuSansCondensed 28px"
        },
        "right-text-default-color":{
        		"gchararray":"#98A9B3FF"
        },        
        "left-bottom-default-font":{
        		"gchararray":"DejaVuSansCondensed 18px"
        },
        "left-bottom-default-color":{
        		"gchararray":"#98A9B3FF"
        },
        "default-background":{
        	"gchararray":"#00000033"    
        }  		
}
