Some rights reserved. 2015-2016 Robert Bosch Car Multimedia GmbH.

The images in this directory are licensed under the Creative Commons
Attribution-ShareAlike 4.0 International License. To view a copy of this
license, visit http://creativecommons.org/licenses/by-sa/4.0/ or send a letter
to Creative Commons, PO Box 1866, Mountain View, CA 94042, USA.
