{
	"name":{
		"gchar":"SPACE"
	},
	"width":{
		"gfloat":374.0
	},
	"height":{
		"gfloat":64.0
	},
	"normal-image":{
		"gchararray":"bt_bg_key_lower_middle_IN.png"
	},
	"pressed-image":{
		"gchararray":"bt_bg_key_lower_middle_AC.png"
	},
	"type":{
		"gchar":"text"
	},
	"x":{
		"gfloat":138.0
	},
	"y":{
		"gfloat":174.0
	},
	"default-text":{
		"gchar":"SPACE"
	},
    "shift-text":{
		"gchar":"SPACE"
	},
	"symbol-text":{
		"gchar":"SPACE"
	},
    "font-type":{
        "gchar":"DejaVuSansCondensed 20px"
    },
    "long-press-enabled":{
        "gboolean":true
    }
}
