 {
        "background-color": {
                "gchararray":"#000000FF"
        },
        "background-width": {
        	"gfloat":650.0
       	},
       	"background-height": {
       		"gfloat":340.0
      	},
       	"background-opacity": {
       		"gint":204
       	},
	"roller-x": {
       		"gfloat":0.0
       	},
       	"roller-y": {
       		"gfloat":0.0
       	},
       	"popup-head-icon":{
       		"gchar":"SP_head_arrow.png"
       	},
       	"head-arrow-x": {
       		"gfloat":0.0
       	},
       	"head-arrow-y": {
       		"gfloat":0.0
       	},
       	"head-arrow-height": {
       		"gfloat":8.0
       	},
       	"text-bottom-height": {
       		"gfloat":8.0
       	},
       	"text-bottom-x": {
       		"gfloat":0.0
       	},
       	"text-bottom-y": {
       		"gfloat":72.0
       	},
       	"text-bottom-icon": {
       		"gchar":"SP_bottom_icon.png"
       	},
       	"text-entry-width": {
       		"gfloat":650.0
       	},
       	"text-entry-height": {
       		"gfloat":64.0
       	},
       	"text-entry-x": {
       		"gfloat":0.0
       	},
       	"text-entry-y": {
       		"gfloat":8.0
       	},
        "text-entry-font": {
       		"gchararray":"DejaVuSansCondensed 28px"
       	},
       	"text-entry-color":{
	       	"gchararray":"#FFFFFFFF"
       	},
       	"up-button-x": {
       		"gfloat":589.0
       	},
       	"up-button-y": {
       		"gfloat":1.0
       	},
       	"up-button-width": {
       		"gfloat":60.0
       	},
       	"up-button-height": {
       		"gfloat":97.0
       	},
       	"down-button-x": {
       		"gfloat":589.0
       	},
       	"down-button-y": {
       		"gfloat":167.0
       	},
       	"down-button-width": {
       		"gfloat":60.0
       	},
       	"down-button-height": {
       		"gfloat":97.0
       	},
       	"back-button-x": {
       		"gfloat":589.0
       	},
       	"back-button-y": {
       		"gfloat":100.0
       	},
       	"back-button-width": {
       		"gfloat":60.0
       	},
       	"back-button-height": {
       		"gfloat":66.0
       	},
       	"back-text-font":{
       		"gchararray":"DejaVuSansCondensed 18px"
       	},
       	"button-pressed": {
       		"gchararray":"bt_bg_popup_button_press.png"
       	},
       	"button-normal": {
       		"gchararray":"bt_bg_popup_button_norm.png"
       	},
      	"text-entry-max-lines":{
      		"gint":2
      	},
      	"up-filled-icon":{
      		"gchararray":"sp_up_filled.png"
      	},
      	"up-empty-icon":{
      		"gchararray":"sp_up_empty.png"
      	},
      	"down-filled-icon":{
      		"gchararray":"sp_down_filled.png"
      	},
      	"down-empty-icon":{
      		"gchararray":"sp_down_empty.png"
      	},
      	"go-normal-icon":{
      		"gchararray":"sp_go_normal.png"
      	},
      	"go-pressed-icon":{
      		"gchararray":"sp_go_pressed.png"
      	},
      	"go-x":{
      		"gfloat":658.0
      	},
      	"go-y":{
      		"gfloat":280.0
      	},
      	"go-width":{
      		"gfloat":64.0
      	},
      	"go-height":{
      		"gfloat":64.0
      	},
      	"go-font":{
      		"gchararray":"DejaVuSansCondensed 28px"
        },
        "seamless-width":{
        	"gfloat":1.0
        },
        "seamless-icon":{
        	"gchararray":"SP_seamless_inverted.png"
        },
        "seamless-displacement":{
        	"gfloat":64.0
        },
        "seamless-opacity":{
        	"gint":51
        },
        "seamless-color":{
        	"gchararray":"#FFFFFFFF"
        }
}
