{
	"name":{
		"gchar":"5"
	},
	"width":{
		"gfloat":195.0
	},
	"height":{
		"gfloat":64.0
	},
	"normal-image":{
		"gchararray":"dial_pad_5.png"
	},
	"pressed-image":{
		"gchararray":"dial_pad_5_pressed.png"
	},
	"x":{
		"gfloat":197.0
	},
	"y":{
		"gfloat":67.0
	},
	"default-text":{
		"gchar":""
	},
	"shift-text":{
		"gchar":"C"
	},
	"symbol-text":{
		"gchar":"_"
	},
    "long-press-enabled":{
        "gboolean":true
    }
}
