{
	"1":{
		"x":{
			"gfloat": 664.0
		}
	},
	"2":{
		"y":{
			"gfloat": 0.0
		}
	},
	"3":{
		"tooltip-duration":{
        	        "guint":3000
		}
        },
	"4":{	
		"tooltip-enabled":{
                	"gboolean":true
		}
        },
	"5":{
		"tooltip-direction":{
        	        "gint":0
		}
	},
	"6":{
		"tooltip-width":{
			"gfloat":269.0
		}
        },
	"7":{
		"multi-state":{
			"gboolean":false
		}
	},
	"8":{
		"views-drawer":{
			"gboolean":false
		}
	},
	"10":{
		"reactive":{
        	        "gboolean":true
		}
        },
	"11":{
		"background-state":{
        	        "gint":0
		}
	}

}	
